<?xml version="1.0" encoding="UTF-8"?>
<svg width="215px" height="32px" viewBox="0 0 215 32" version="1.1" xmlns="http://www.w3.org/2000/svg" xmlns:xlink="http://www.w3.org/1999/xlink">
    <title>logo/32/text/color/gopay</title>
    <g id="logo/32/text/color/gopay" stroke="none" stroke-width="1" fill="none" fill-rule="evenodd">
        <g id="Group" transform="translate(0.000000, 3.200000)">
            <circle id="Oval" fill="#00AED6" fill-rule="nonzero" cx="12.8" cy="12.8" r="12.8"></circle>
            <circle id="Oval" fill="#00AED6" fill-rule="nonzero" cx="12.8" cy="12.8" r="12.8"></circle>
            <path d="M20.2554987,12.401344 C20.1611674,10.7759614 18.777974,9.52823541 17.1514987,9.601344 L9.06616533,9.601344 C8.77161347,9.601344 8.532832,9.36256253 8.532832,9.06801067 C8.532832,8.7734588 8.77161347,8.53467733 9.06616533,8.53467733 L17.2581013,8.53467733 C17.2138188,7.42806951 16.459077,6.4770948 15.3914347,6.18267733 C13.0045871,5.76135465 10.5623889,5.76135465 8.17554133,6.18267733 C6.81872973,6.51690118 5.80377101,7.64604276 5.61554133,9.03067733 C5.23689689,11.5427112 5.23689689,14.0973101 5.61554133,16.609344 C5.90379402,18.0715283 7.06418127,19.2043378 8.53287467,19.457344 C11.4957133,19.8253514 14.4927027,19.8253514 17.4555413,19.457344 C18.7731445,19.1876068 19.7701272,18.1047053 19.930272,16.769344 C20.1955558,15.3292905 20.3045964,13.8648053 20.2554987,12.401344 Z M17.5994987,14.193344 L17.5994987,14.6680107 C17.5994987,14.9625625 17.3607172,15.201344 17.0661653,15.201344 C16.7716135,15.201344 16.532832,14.9625625 16.532832,14.6680107 L16.532832,14.193344 C16.3624053,14.0439405 16.2651275,13.8279838 16.2661571,13.601344 C16.2661571,13.1595162 16.6243375,12.801344 17.0661653,12.801344 C17.5079931,12.801344 17.8661736,13.1595162 17.8661736,13.601344 C17.8672043,13.827981 17.769926,14.0439348 17.5994987,14.1933333 L17.5994987,14.193344 Z" id="Shape" fill="#FFFFFF"></path>
            <path d="M35.718752,19.171872 C36.8051107,20.7217871 38.6117548,21.6046371 40.50208,21.5093333 C42.7312533,21.5093333 44.37088,20.0853333 44.37088,18.149952 L44.37088,17.129152 L44.3167147,17.129152 C43.0953853,18.3228213 41.4279066,18.9470867 39.7229547,18.8489493 C37.0294378,18.9262779 34.5043668,17.5421248 33.1207424,15.229854 C31.737118,12.9175832 31.7109254,10.0381427 33.0522576,7.70108467 C34.3935899,5.36402659 36.8930635,3.93416816 39.5875413,3.96248533 C41.3249119,3.8510132 43.0326652,4.45249008 44.3167147,5.62811733 L44.37088,5.62811733 L44.37088,4.23125333 L48.1875413,4.23125333 L48.1875413,18.0968533 C48.1875413,22.1270613 44.9896213,24.921856 40.5021227,24.921856 C37.5627229,25.0821299 34.7247425,23.8231276 32.87088,21.5364373 L35.718752,19.171872 Z M44.2104213,10.5458347 C44.2104213,8.93333333 42.3833387,7.45521067 40.3416213,7.45521067 C37.7603733,7.45521067 36.0416213,9.01458133 36.0416213,11.3520853 C35.9650947,12.4595971 36.3813588,13.5444102 37.1791048,14.3164464 C37.9768509,15.0884825 39.0747136,15.4689988 40.1791253,15.3562453 C42.4103787,15.3562453 44.2104213,13.958336 44.2104213,12.211456 L44.2104213,10.5458347 Z M58.1833387,3.828128 C62.8333333,3.828128 66.218752,7.13333333 66.218752,11.3520853 C66.218752,15.5708373 62.8333333,18.8760427 58.1833387,18.8760427 C55.3776311,19.0599692 52.7026564,17.6674903 51.2439975,15.2637145 C49.7853385,12.8599387 49.7853385,9.84423198 51.2439975,7.44045616 C52.7026564,5.03668034 55.3776311,3.64420144 58.1833387,3.828128 L58.1833387,3.828128 Z M58.1833387,7.320832 C55.9608728,7.33599424 54.1700391,9.14722892 54.1799684,11.3697239 C54.1900641,13.5922189 55.9971445,15.3872447 58.2196567,15.3824016 C60.4421689,15.3775191 62.241377,13.5746029 62.241664,11.3520853 C62.292049,10.2634945 61.8797316,9.20436362 61.1065831,8.43637263 C60.3334347,7.66838164 59.2715679,7.26316219 58.1833387,7.320832 L58.1833387,7.320832 Z M68.3687467,4.23125333 L72.1854187,4.23125333 L72.1854187,5.49374933 L72.239584,5.49374933 C73.4866654,4.34687383 75.1410097,3.74703458 76.8333333,3.828128 C80.9306682,3.90205543 84.2156382,7.24081496 84.2230385,11.33881 C84.2303891,15.4368051 80.9574582,18.7873673 76.860416,18.8760427 C75.2430344,18.9133415 73.664073,18.3805076 72.4,17.3708373 L72.3458347,17.3708373 L72.3458347,24.518752 L68.3687467,24.518752 L68.3687467,4.23125333 Z M76.2166613,7.34787504 C74.118752,7.34787504 72.3458347,8.82603733 72.3458347,10.4385387 L72.3458347,12.2385387 C72.3458347,13.958336 74.0666667,15.3822933 76.241664,15.3822933 C78.4602963,15.3753889 80.2532561,13.571235 80.2463914,11.3526027 C80.2394475,9.13397034 78.4352937,7.34101048 76.2166613,7.34787504 Z M91.720832,9.981248 C94.3270827,9.632288 95.1062507,9.25624533 95.1062507,8.530208 C95.1062507,7.58957867 94.1125013,7.02603733 92.581248,7.02603733 C90.931333,6.88633137 89.4255961,7.96943775 89.0333333,9.57812267 L85.2708373,8.79895467 C85.8083307,5.89687467 88.7916693,3.828128 92.4729707,3.828128 C96.6375573,3.828128 99.2188053,5.95104 99.2188053,9.41666133 L99.2188053,18.4729173 L95.6437333,18.4729173 L95.6437333,16.9145813 L95.5895573,16.9145813 C94.3777366,18.2800083 92.6002242,19.0047951 90.7791467,18.8760427 C87.635392,18.8760427 85.4603947,17.1562453 85.4603947,14.630208 C85.460416,11.969792 87.2333333,10.6 91.720832,9.981248 Z M95.4291627,11.4864533 L95.3749973,11.4864533 C95.0250027,11.9968747 94.2729173,12.292704 92.339584,12.6416533 C90,13.0718613 89.1687467,13.5281173 89.1687467,14.3614507 C89.1687467,15.2218667 89.8666667,15.5979093 91.3708373,15.5979093 C93.6562453,15.5979093 95.4291627,14.549984 95.4291627,13.1791573 L95.4291627,11.4864533 Z M106.418752,17.6937493 L99.8354133,4.23125333 L104.216661,4.23125333 L108.541664,13.528128 L108.595829,13.528128 L112.868747,4.23125333 L117.274997,4.23125333 L107.414581,24.518752 L103.033333,24.518752 L106.418752,17.6937493 Z" id="Shape" fill="#000000" fill-rule="nonzero"></path>
        </g>
    </g>
</svg>